06_Tuto_Pack_Libs/simulation/qsim/Lib_Pack.msim.vcd
$comment
	File created using the following command:
		vcd file Lib_Pack.msim.vcd -direction
$end
$date
	Wed Jul 10 11:19:52 2024
$end
$version
	ModelSim Version 10.5b
$end
$timescale
	1ps
$end

$scope module multy_vhd_vec_tst $end
$var wire 1 ! p [7] $end
$var wire 1 " p [6] $end
$var wire 1 # p [5] $end
$var wire 1 $ p [4] $end
$var wire 1 % p [3] $end
$var wire 1 & p [2] $end
$var wire 1 ' p [1] $end
$var wire 1 ( p [0] $end
$var wire 1 ) x [3] $end
$var wire 1 * x [2] $end
$var wire 1 + x [1] $end
$var wire 1 , x [0] $end
$var wire 1 - y [3] $end
$var wire 1 . y [2] $end
$var wire 1 / y [1] $end
$var wire 1 0 y [0] $end

$scope module i1 $end
$var wire 1 1 gnd $end
$var wire 1 2 vcc $end
$var wire 1 3 unknown $end
$var wire 1 4 devoe $end
$var wire 1 5 devclrn $end
$var wire 1 6 devpor $end
$var wire 1 7 ww_devoe $end
$var wire 1 8 ww_devclrn $end
$var wire 1 9 ww_devpor $end
$var wire 1 : ww_x [3] $end
$var wire 1 ; ww_x [2] $end
$var wire 1 < ww_x [1] $end
$var wire 1 = ww_x [0] $end
$var wire 1 > ww_y [3] $end
$var wire 1 ? ww_y [2] $end
$var wire 1 @ ww_y [1] $end
$var wire 1 A ww_y [0] $end
$var wire 1 B ww_p [7] $end
$var wire 1 C ww_p [6] $end
$var wire 1 D ww_p [5] $end
$var wire 1 E ww_p [4] $end
$var wire 1 F ww_p [3] $end
$var wire 1 G ww_p [2] $end
$var wire 1 H ww_p [1] $end
$var wire 1 I ww_p [0] $end
$var wire 1 J \p[0]~output_o\ $end
$var wire 1 K \p[1]~output_o\ $end
$var wire 1 L \p[2]~output_o\ $end
$var wire 1 M \p[3]~output_o\ $end
$var wire 1 N \p[4]~output_o\ $end
$var wire 1 O \p[5]~output_o\ $end
$var wire 1 P \p[6]~output_o\ $end
$var wire 1 Q \p[7]~output_o\ $end
$var wire 1 R \x[0]~input_o\ $end
$var wire 1 S \y[0]~input_o\ $end
$var wire 1 T \p~0_combout\ $end
$var wire 1 U \y[1]~input_o\ $end
$var wire 1 V \x[1]~input_o\ $end
$var wire 1 W \cell_1|FA1|sum~0_combout\ $end
$var wire 1 X \y[2]~input_o\ $end
$var wire 1 Y \x[2]~input_o\ $end
$var wire 1 Z \cell_1|FA2|sum~4_combout\ $end
$var wire 1 [ \cell_1|FA2|sum~5_combout\ $end
$var wire 1 \ \cell_2|FA1|sum~2_combout\ $end
$var wire 1 ] \y[3]~input_o\ $end
$var wire 1 ^ \cell_1|FA2|cout~3_combout\ $end
$var wire 1 _ \cell_1|FA2|cout~9_combout\ $end
$var wire 1 ` \x[3]~input_o\ $end
$var wire 1 a \cell_1|FA3|sum~combout\ $end
$var wire 1 b \cell_2|FA2|sum~combout\ $end
$var wire 1 c \cell_3|FA1|sum~2_combout\ $end
$var wire 1 d \cell_2|FA2|cout~0_combout\ $end
$var wire 1 e \cell_1|FA3|cout~0_combout\ $end
$var wire 1 f \cell_2|FA3|sum~combout\ $end
$var wire 1 g \cell_3|FA2|sum~combout\ $end
$var wire 1 h \cell_2|FA3|cout~0_combout\ $end
$var wire 1 i \cell_2|FA4|sum~2_combout\ $end
$var wire 1 j \cell_3|FA2|cout~0_combout\ $end
$var wire 1 k \cell_3|FA3|sum~combout\ $end
$var wire 1 l \cell_3|FA3|cout~0_combout\ $end
$var wire 1 m \cell_2|FA4|cout~0_combout\ $end
$var wire 1 n \cell_3|FA4|sum~0_combout\ $end
$var wire 1 o \cell_3|FA4|cout~0_combout\ $end
$var wire 1 p G1 [3] $end
$var wire 1 q G1 [2] $end
$var wire 1 r G1 [1] $end
$var wire 1 s G1 [0] $end
$var wire 1 t G2 [3] $end
$var wire 1 u G2 [2] $end
$var wire 1 v G2 [1] $end
$var wire 1 w G2 [0] $end
$var wire 1 x G0 [3] $end
$var wire 1 y G0 [2] $end
$var wire 1 z G0 [1] $end
$var wire 1 { G0 [0] $end
$upscope $end
$upscope $end
$enddefinitions $end
#0
$dumpvars
01
12
x3
14
15
16
17
18
19
0J
0K
0L
0M
0N
0O
0P
0Q
0R
0S
0T
0U
0V
0W
0X
0Y
0Z
0[
0\
0]
0^
0_
0`
0a
0b
0c
0d
0e
0f
0g
0h
0i
0j
0k
0l
0m
0n
0o
0)
0*
0+
0,
0-
0.
0/
00
0!
0"
0#
0$
0%
0&
0'
0(
0:
0;
0<
0=
0>
0?
0@
0A
0B
0C
0D
0E
0F
0G
0H
0I
0p
0q
0r
0s
xt
0u
0v
0w
0x
0y
xz
x{
$end
#100000
1,
1=
1R
1^
#150000
10
1A
1S
1T
1Z
1J
1I
1(
#200000
0,
1+
0=
1<
1V
0R
0T
0^
1W
0Z
1[
1\
0[
0\
1K
0J
1H
0I
1L
0(
1'
1G
0L
1&
0G
0&
#300000
1,
00
1/
1=
0A
1@
1U
0S
1R
1^
1Z
1[
1\
1L
1G
1&
#400000
0,
0+
1*
0=
0<
1;
1Y
0V
0R
0W
0Z
0[
1y
1a
0\
1b
0K
1c
0H
0L
0'
0G
0&
1M
1F
1%
#450000
10
1A
1S
1Z
1[
1\
1L
1G
1&
#500000
1,
1=
1R
1T
1W
1K
1J
1H
1I
1(
1'
#600000
0,
00
1+
0/
1.
0=
1<
0A
0@
1?
1X
0U
0S
1V
0R
0T
0W
0Z
0y
1r
1q
1f
0b
1d
0a
0[
0\
1b
0d
0f
1h
0c
1g
0K
0J
1k
1f
0h
1c
0g
0H
0I
0(
0'
0k
1g
1N
0M
0L
1E
0F
0G
0N
1M
1O
0&
0%
1$
0E
1F
1D
1N
0O
1%
0$
1#
1E
0D
1$
0#
#700000
1,
1=
1R
1\
1s
1L
1G
1&
#750000
10
1A
1S
1T
1W
1[
0\
0b
1d
0f
1h
0c
1K
1J
1k
0g
1H
1I
0L
1(
1'
0G
0M
0&
0F
0N
1O
0%
0E
1D
0$
1#
#800000
0,
0+
0*
1)
0=
0<
0;
1:
1`
0Y
0V
0R
0T
1\
0s
0W
1Z
0r
0[
0^
0q
1a
1i
1p
1m
0k
1f
0h
0\
1b
0d
0f
1c
1k
0m
1g
1n
0K
1L
0J
0n
0g
0H
1G
0I
0L
0O
0(
0'
1&
0G
0D
1P
1N
1O
1M
0&
0#
1C
1E
1D
1F
0N
0P
1%
1$
1#
1"
0E
0C
0$
0"
#900000
1,
00
1/
1=
0A
1@
1U
0S
1R
1\
1^
1s
0a
1W
0Z
1x
1f
0b
0c
1g
1K
1L
1H
1G
1'
1&
1N
0M
1E
0F
0%
1$
