08_Tuto_Pack_Conf/simulation/qsim/Top.msim.vcd
$comment
	File created using the following command:
		vcd file Top.msim.vcd -direction
$end
$date
	Wed Jul 17 09:30:01 2024
$end
$version
	ModelSim Version 10.5b
$end
$timescale
	1ps
$end

$scope module toplevel_vhd_vec_tst $end
$var wire 1 ! clk $end
$var wire 1 " data_in [15] $end
$var wire 1 # data_in [14] $end
$var wire 1 $ data_in [13] $end
$var wire 1 % data_in [12] $end
$var wire 1 & data_in [11] $end
$var wire 1 ' data_in [10] $end
$var wire 1 ( data_in [9] $end
$var wire 1 ) data_in [8] $end
$var wire 1 * data_in [7] $end
$var wire 1 + data_in [6] $end
$var wire 1 , data_in [5] $end
$var wire 1 - data_in [4] $end
$var wire 1 . data_in [3] $end
$var wire 1 / data_in [2] $end
$var wire 1 0 data_in [1] $end
$var wire 1 1 data_in [0] $end
$var wire 1 2 data_out [15] $end
$var wire 1 3 data_out [14] $end
$var wire 1 4 data_out [13] $end
$var wire 1 5 data_out [12] $end
$var wire 1 6 data_out [11] $end
$var wire 1 7 data_out [10] $end
$var wire 1 8 data_out [9] $end
$var wire 1 9 data_out [8] $end
$var wire 1 : data_out [7] $end
$var wire 1 ; data_out [6] $end
$var wire 1 < data_out [5] $end
$var wire 1 = data_out [4] $end
$var wire 1 > data_out [3] $end
$var wire 1 ? data_out [2] $end
$var wire 1 @ data_out [1] $end
$var wire 1 A data_out [0] $end
$var wire 1 B n_reset $end

$scope module i1 $end
$var wire 1 C gnd $end
$var wire 1 D vcc $end
$var wire 1 E unknown $end
$var wire 1 F devoe $end
$var wire 1 G devclrn $end
$var wire 1 H devpor $end
$var wire 1 I ww_devoe $end
$var wire 1 J ww_devclrn $end
$var wire 1 K ww_devpor $end
$var wire 1 L ww_clk $end
$var wire 1 M ww_n_reset $end
$var wire 1 N ww_data_in [15] $end
$var wire 1 O ww_data_in [14] $end
$var wire 1 P ww_data_in [13] $end
$var wire 1 Q ww_data_in [12] $end
$var wire 1 R ww_data_in [11] $end
$var wire 1 S ww_data_in [10] $end
$var wire 1 T ww_data_in [9] $end
$var wire 1 U ww_data_in [8] $end
$var wire 1 V ww_data_in [7] $end
$var wire 1 W ww_data_in [6] $end
$var wire 1 X ww_data_in [5] $end
$var wire 1 Y ww_data_in [4] $end
$var wire 1 Z ww_data_in [3] $end
$var wire 1 [ ww_data_in [2] $end
$var wire 1 \ ww_data_in [1] $end
$var wire 1 ] ww_data_in [0] $end
$var wire 1 ^ ww_data_out [15] $end
$var wire 1 _ ww_data_out [14] $end
$var wire 1 ` ww_data_out [13] $end
$var wire 1 a ww_data_out [12] $end
$var wire 1 b ww_data_out [11] $end
$var wire 1 c ww_data_out [10] $end
$var wire 1 d ww_data_out [9] $end
$var wire 1 e ww_data_out [8] $end
$var wire 1 f ww_data_out [7] $end
$var wire 1 g ww_data_out [6] $end
$var wire 1 h ww_data_out [5] $end
$var wire 1 i ww_data_out [4] $end
$var wire 1 j ww_data_out [3] $end
$var wire 1 k ww_data_out [2] $end
$var wire 1 l ww_data_out [1] $end
$var wire 1 m ww_data_out [0] $end
$var wire 1 n \n_reset~inputclkctrl_INCLK_bus\ [3] $end
$var wire 1 o \n_reset~inputclkctrl_INCLK_bus\ [2] $end
$var wire 1 p \n_reset~inputclkctrl_INCLK_bus\ [1] $end
$var wire 1 q \n_reset~inputclkctrl_INCLK_bus\ [0] $end
$var wire 1 r \clk~inputclkctrl_INCLK_bus\ [3] $end
$var wire 1 s \clk~inputclkctrl_INCLK_bus\ [2] $end
$var wire 1 t \clk~inputclkctrl_INCLK_bus\ [1] $end
$var wire 1 u \clk~inputclkctrl_INCLK_bus\ [0] $end
$var wire 1 v \data_out[0]~output_o\ $end
$var wire 1 w \data_out[1]~output_o\ $end
$var wire 1 x \data_out[2]~output_o\ $end
$var wire 1 y \data_out[3]~output_o\ $end
$var wire 1 z \data_out[4]~output_o\ $end
$var wire 1 { \data_out[5]~output_o\ $end
$var wire 1 | \data_out[6]~output_o\ $end
$var wire 1 } \data_out[7]~output_o\ $end
$var wire 1 ~ \data_out[8]~output_o\ $end
$var wire 1 !! \data_out[9]~output_o\ $end
$var wire 1 "! \data_out[10]~output_o\ $end
$var wire 1 #! \data_out[11]~output_o\ $end
$var wire 1 $! \data_out[12]~output_o\ $end
$var wire 1 %! \data_out[13]~output_o\ $end
$var wire 1 &! \data_out[14]~output_o\ $end
$var wire 1 '! \data_out[15]~output_o\ $end
$var wire 1 (! \clk~input_o\ $end
$var wire 1 )! \clk~inputclkctrl_outclk\ $end
$var wire 1 *! \data_in[0]~input_o\ $end
$var wire 1 +! \U1|data_out[0]~feeder_combout\ $end
$var wire 1 ,! \n_reset~input_o\ $end
$var wire 1 -! \n_reset~inputclkctrl_outclk\ $end
$var wire 1 .! \data_in[1]~input_o\ $end
$var wire 1 /! \U1|data_out[1]~feeder_combout\ $end
$var wire 1 0! \data_in[2]~input_o\ $end
$var wire 1 1! \data_in[3]~input_o\ $end
$var wire 1 2! \data_in[4]~input_o\ $end
$var wire 1 3! \data_in[5]~input_o\ $end
$var wire 1 4! \U1|data_out[5]~feeder_combout\ $end
$var wire 1 5! \data_in[6]~input_o\ $end
$var wire 1 6! \U1|data_out[6]~feeder_combout\ $end
$var wire 1 7! \data_in[7]~input_o\ $end
$var wire 1 8! \U1|data_out[7]~feeder_combout\ $end
$var wire 1 9! \data_in[8]~input_o\ $end
$var wire 1 :! \data_in[9]~input_o\ $end
$var wire 1 ;! \U1|data_out[9]~feeder_combout\ $end
$var wire 1 <! \data_in[10]~input_o\ $end
$var wire 1 =! \data_in[11]~input_o\ $end
$var wire 1 >! \U1|data_out[11]~feeder_combout\ $end
$var wire 1 ?! \data_in[12]~input_o\ $end
$var wire 1 @! \data_in[13]~input_o\ $end
$var wire 1 A! \U1|data_out[13]~feeder_combout\ $end
$var wire 1 B! \data_in[14]~input_o\ $end
$var wire 1 C! \U1|data_out[14]~feeder_combout\ $end
$var wire 1 D! \data_in[15]~input_o\ $end
$var wire 1 E! \U1|data_out\ [15] $end
$var wire 1 F! \U1|data_out\ [14] $end
$var wire 1 G! \U1|data_out\ [13] $end
$var wire 1 H! \U1|data_out\ [12] $end
$var wire 1 I! \U1|data_out\ [11] $end
$var wire 1 J! \U1|data_out\ [10] $end
$var wire 1 K! \U1|data_out\ [9] $end
$var wire 1 L! \U1|data_out\ [8] $end
$var wire 1 M! \U1|data_out\ [7] $end
$var wire 1 N! \U1|data_out\ [6] $end
$var wire 1 O! \U1|data_out\ [5] $end
$var wire 1 P! \U1|data_out\ [4] $end
$var wire 1 Q! \U1|data_out\ [3] $end
$var wire 1 R! \U1|data_out\ [2] $end
$var wire 1 S! \U1|data_out\ [1] $end
$var wire 1 T! \U1|data_out\ [0] $end
$upscope $end
$upscope $end
$enddefinitions $end
#0
$dumpvars
0!
0B
0C
1D
xE
1F
1G
1H
1I
1J
1K
0L
0M
0v
0w
0x
0y
0z
0{
0|
0}
0~
0!!
0"!
0#!
0$!
0%!
0&!
0'!
0(!
0)!
0*!
0+!
0,!
0-!
0.!
0/!
00!
01!
02!
03!
04!
05!
06!
07!
08!
09!
0:!
0;!
0<!
0=!
0>!
0?!
0@!
0A!
0B!
0C!
0D!
0"
0#
0$
0%
0&
0'
0(
0)
0*
0+
0,
0-
0.
0/
00
01
02
03
04
05
06
07
08
09
0:
0;
0<
0=
0>
0?
0@
0A
0N
0O
0P
0Q
0R
0S
0T
0U
0V
0W
0X
0Y
0Z
0[
0\
0]
0^
0_
0`
0a
0b
0c
0d
0e
0f
0g
0h
0i
0j
0k
0l
0m
0E!
0F!
0G!
0H!
0I!
0J!
0K!
0L!
0M!
0N!
0O!
0P!
0Q!
0R!
0S!
0T!
1r
1s
1t
0u
1n
1o
1p
0q
$end
#10000
1!
1L
1(!
1u
1)!
#20000
0!
0L
0(!
0u
0)!
#30000
1!
1L
1(!
1u
1)!
#40000
0!
0L
0(!
0u
0)!
#50000
1!
11
1L
1]
1*!
1(!
1u
1+!
1)!
#60000
0!
0L
0(!
0u
0)!
#70000
1!
1L
1(!
1u
1)!
#80000
0!
0L
0(!
0u
0)!
#90000
1!
1L
1(!
1u
1)!
#100000
0!
01
1B
10
0L
0]
1\
1M
1,!
1.!
0*!
0(!
1q
0u
0+!
1/!
0)!
1-!
#110000
1!
1L
1(!
1u
1)!
1S!
1w
1l
1@
#120000
0!
0L
0(!
0u
0)!
#130000
1!
1L
1(!
1u
1)!
#140000
0!
0L
0(!
0u
0)!
#150000
1!
11
1L
1]
1*!
1(!
1u
1+!
1)!
1T!
1v
1m
1A
#160000
0!
0L
0(!
0u
0)!
#170000
1!
1L
1(!
1u
1)!
#180000
0!
0L
0(!
0u
0)!
#190000
1!
1L
1(!
1u
1)!
#200000
0!
01
0B
00
1/
0L
0]
0\
1[
0M
0,!
10!
0.!
0*!
0(!
0q
0u
0+!
0/!
0)!
0-!
0T!
0S!
0w
0v
0l
0m
0A
0@
#210000
1!
1L
1(!
1u
1)!
#220000
0!
0L
0(!
0u
0)!
#230000
1!
1L
1(!
1u
1)!
#240000
0!
0L
0(!
0u
0)!
#250000
1!
11
1L
1]
1*!
1(!
1u
1+!
1)!
#260000
0!
0L
0(!
0u
0)!
#270000
1!
1L
1(!
1u
1)!
#280000
0!
0L
0(!
0u
0)!
#290000
1!
1L
1(!
1u
1)!
#300000
0!
01
1B
10
0L
0]
1\
1M
1,!
1.!
0*!
0(!
1q
0u
0+!
1/!
0)!
1-!
#310000
1!
1L
1(!
1u
1)!
1S!
1R!
1x
1w
1k
1l
1@
1?
#320000
0!
0L
0(!
0u
0)!
#330000
1!
1L
1(!
1u
1)!
#340000
0!
0L
0(!
0u
0)!
#350000
1!
11
1L
1]
1*!
1(!
1u
1+!
1)!
1T!
1v
1m
1A
#360000
0!
0L
0(!
0u
0)!
#370000
1!
1L
1(!
1u
1)!
#380000
0!
0L
0(!
0u
0)!
#390000
1!
1L
1(!
1u
1)!
#400000
0!
01
0B
00
0/
1.
0L
0]
0\
0[
1Z
0M
0,!
11!
00!
0.!
0*!
0(!
0q
0u
0+!
0/!
0)!
0-!
0T!
0S!
0R!
0x
0w
0v
0k
0l
0m
0A
0@
0?
#410000
1!
1L
1(!
1u
1)!
#420000
0!
0L
0(!
0u
0)!
#430000
1!
1L
1(!
1u
1)!
#440000
0!
0L
0(!
0u
0)!
#450000
1!
11
1L
1]
1*!
1(!
1u
1+!
1)!
#460000
0!
0L
0(!
0u
0)!
#470000
1!
1L
1(!
1u
1)!
#480000
0!
0L
0(!
0u
0)!
#490000
1!
1L
1(!
1u
1)!
#500000
0!
01
1B
10
0L
0]
1\
1M
1,!
1.!
0*!
0(!
1q
0u
0+!
1/!
0)!
1-!
#510000
1!
1L
1(!
1u
1)!
1S!
1Q!
1y
1w
1j
1l
1@
1>
#520000
0!
0L
0(!
0u
0)!
#530000
1!
1L
1(!
1u
1)!
#540000
0!
0L
0(!
0u
0)!
#550000
1!
11
1L
1]
1*!
1(!
1u
1+!
1)!
1T!
1v
1m
1A
#560000
0!
0L
0(!
0u
0)!
#570000
1!
1L
1(!
1u
1)!
#580000
0!
0L
0(!
0u
0)!
#590000
1!
1L
1(!
1u
1)!
#600000
0!
01
0B
00
1/
0L
0]
0\
1[
0M
0,!
10!
0.!
0*!
0(!
0q
0u
0+!
0/!
0)!
0-!
0T!
0S!
0Q!
0y
0w
0v
0j
0l
0m
0A
0@
0>
#610000
1!
1L
1(!
1u
1)!
#620000
0!
0L
0(!
0u
0)!
#630000
1!
1L
1(!
1u
1)!
#640000
0!
0L
0(!
0u
0)!
#650000
1!
11
1L
1]
1*!
1(!
1u
1+!
1)!
#660000
0!
0L
0(!
0u
0)!
#670000
1!
1L
1(!
1u
1)!
#680000
0!
0L
0(!
0u
0)!
#690000
1!
1L
1(!
1u
1)!
#700000
0!
01
1B
10
0L
0]
1\
1M
1,!
1.!
0*!
0(!
1q
0u
0+!
1/!
0)!
1-!
#710000
1!
1L
1(!
1u
1)!
1S!
1R!
1Q!
1y
1x
1w
1j
1k
1l
1@
1?
1>
#720000
0!
0L
0(!
0u
0)!
#730000
1!
1L
1(!
1u
1)!
#740000
0!
0L
0(!
0u
0)!
#750000
1!
11
1L
1]
1*!
1(!
1u
1+!
1)!
1T!
1v
1m
1A
#760000
0!
0L
0(!
0u
0)!
#770000
1!
1L
1(!
1u
1)!
#780000
0!
0L
0(!
0u
0)!
#790000
1!
1L
1(!
1u
1)!
#800000
0!
01
0B
00
0/
0.
1-
0L
0]
0\
0[
0Z
1Y
0M
0,!
12!
01!
00!
0.!
0*!
0(!
0q
0u
0+!
0/!
0)!
0-!
0T!
0S!
0R!
0Q!
0y
0x
0w
0v
0j
0k
0l
0m
0A
0@
0?
0>
#810000
1!
1L
1(!
1u
1)!
#820000
0!
0L
0(!
0u
0)!
#830000
1!
1L
1(!
1u
1)!
#840000
0!
0L
0(!
0u
0)!
#850000
1!
11
1L
1]
1*!
1(!
1u
1+!
1)!
#860000
0!
0L
0(!
0u
0)!
#870000
1!
1L
1(!
1u
1)!
#880000
0!
0L
0(!
0u
0)!
#890000
1!
1L
1(!
1u
1)!
#900000
0!
01
1B
10
0L
0]
1\
1M
1,!
1.!
0*!
0(!
1q
0u
0+!
1/!
0)!
1-!
#910000
1!
1L
1(!
1u
1)!
1S!
1P!
1z
1w
1i
1l
1@
1=
#920000
0!
0L
0(!
0u
0)!
#930000
1!
1L
1(!
1u
1)!
#940000
0!
0L
0(!
0u
0)!
#950000
1!
11
1L
1]
1*!
1(!
1u
1+!
1)!
1T!
1v
1m
1A
#960000
0!
0L
0(!
0u
0)!
#970000
1!
1L
1(!
1u
1)!
#980000
0!
0L
0(!
0u
0)!
#990000
1!
1L
1(!
1u
1)!
